Using the Illinois Report Card Data to Teach Statistics
…
Produce and converting the matrix to a table of output.

```r
set.seed(2020)
confid_ints <- as_tibble(rand_samp(29, "ACT_COMP_SCHOOL", 25))
confid_ints
```

```
## # A tibble: 29 x 7
##    Sample Sample_Size  Mean StdDev L_Bound U_Bound Parameter
##     <dbl>       <dbl> <dbl>  <dbl>   <dbl>   <dbl>     <dbl>
##  1      1          25  19.8   2.99    18.6    21.0      20.1
##  2      2          25  20.4   3.28    19.1    21.8      20.1
##  3      3          25  19.8   4.19    18.1    21.6      20.1
##  4      4          25  19.8   4.15    18.1    21.5      20.1
##  5      5          25  20.6   3.98    18.9    22.2      20.1
##  6      6          25  20.3   3.94    18.6    21.9      20.1
##  7      7          25  20.0   3.53    18.6    21.5      20.1
##  8      8          25  21.4   3.01    20.2    22.6      20.1
##  9      9          25  19.4   3.14    18.1    20.7      20.1
## 10     10          25  19.3   3.00    18.1    20.5      20.1
## # … with 19 more rows
```
…
